{
  "schemaVersion": 1,
  "id": "retstation",
  "version": "ALPHA",
  "name": "RetStation Mod",
  "description": "ALPHA TEXT PLEASE DO NOT READ",
  "authors": [
    "Retkid / albassort/"
  ],
  "contact": {
    "homepage": "https://AbnormalAudio.com/",
    "sources": "https://github.com/Retkid/retstation"
  },
  "license": "CC0-1.0",
  "icon": "assets/retstation/icon.png",
  "environment": "*",
  "entrypoints": {
    "main": [
      "net.albassort.station.MainKt::init"
    ]
  },
  "mixins": [
    "retstation.mixins.json"
  ],
  "depends": {
    "fabricloader": ">=0.8.7",
    "fabric": "*",
    "fabric-language-kotlin": "*",
    "minecraft": "1.17.x"
  },
  "suggests": {
    "flamingo": "*"
  }
}