{
  "minecraft:husbandry/balanced_diet": {
    "criteria": {
      "cooked_beef": "2021-09-21 02:16:32 -0400"
    },
    "done": false
  },
  "minecraft:husbandry/root": {
    "criteria": {
      "consumed_item": "2021-09-21 02:16:32 -0400"
    },
    "done": true
  },
  "DataVersion": 2724
}